<?xml version="1.0" encoding="UTF-8" standalone="no"?>
<!-- Created with Inkscape (http://www.inkscape.org/) -->

<svg
   xmlns:dc="http://purl.org/dc/elements/1.1/"
   xmlns:cc="http://creativecommons.org/ns#"
   xmlns:rdf="http://www.w3.org/1999/02/22-rdf-syntax-ns#"
   xmlns:svg="http://www.w3.org/2000/svg"
   xmlns="http://www.w3.org/2000/svg"
   xmlns:sodipodi="http://sodipodi.sourceforge.net/DTD/sodipodi-0.dtd"
   xmlns:inkscape="http://www.inkscape.org/namespaces/inkscape"
   width="196.07875mm"
   height="185.58133mm"
   viewBox="0 0 196.07875 185.58133"
   version="1.1"
   id="svg7000"
   inkscape:version="0.92.2 2405546, 2018-03-11"
   sodipodi:docname="logo_ohm.svg"
   inkscape:export-filename="logo_ohm_sweet_haum.png"
   inkscape:export-xdpi="90"
   inkscape:export-ydpi="90">
  <defs
     id="defs6994" />
  <sodipodi:namedview
     id="base"
     pagecolor="#ffffff"
     bordercolor="#666666"
     borderopacity="1.0"
     inkscape:pageopacity="0.0"
     inkscape:pageshadow="2"
     inkscape:zoom="0.7"
     inkscape:cx="343.70445"
     inkscape:cy="264.74549"
     inkscape:document-units="mm"
     inkscape:current-layer="g8273"
     showgrid="false"
     inkscape:window-width="1280"
     inkscape:window-height="1376"
     inkscape:window-x="0"
     inkscape:window-y="27"
     inkscape:window-maximized="0"
     fit-margin-left="5"
     fit-margin-top="5"
     fit-margin-right="5"
     fit-margin-bottom="5" />
  <metadata
     id="metadata6997">
    <rdf:RDF>
      <cc:Work
         rdf:about="">
        <dc:format>image/svg+xml</dc:format>
        <dc:type
           rdf:resource="http://purl.org/dc/dcmitype/StillImage" />
        <dc:title />
      </cc:Work>
    </rdf:RDF>
  </metadata>
  <g
     inkscape:label="Layer 1"
     inkscape:groupmode="layer"
     id="layer1"
     transform="translate(-4.1758283,-95.558701)">
    <g
       id="g7568"
       transform="translate(-3.9960991)"
       inkscape:export-xdpi="90"
       inkscape:export-ydpi="90">
      <path
         id="text2985"
         d="m 17.04259,113.82447 v 41.40729 h 10.68256 v -17.55345 -8.06979 -1.24024 -14.54381 z m 26.433534,0 v 15.78405 H 31.14819 v 8.06979 h 12.327934 v 17.55345 h 10.682552 v -41.40729 z m 63.822466,0 v 24.82122 c -1e-5,5.86183 1.47507,10.2307 4.41523,13.09688 2.77695,2.70709 6.92815,4.13266 12.44368,4.28294 v -7.87962 c -2.02981,-0.17017 -3.53836,-0.8856 -4.51445,-2.14974 -1.10951,-1.47931 -1.66193,-3.92951 -1.66192,-7.35046 v -24.82122 z m 25.01965,0 v 24.82122 c -3e-5,3.42095 -0.55876,5.87115 -1.68672,7.35046 -0.7162,0.94298 -1.73436,1.584 -3.05097,1.91823 v 8.04498 c 4.81255,-0.3451 8.48467,-1.75183 11.01328,-4.21679 2.94011,-2.86618 4.40692,-7.23505 4.40696,-13.09688 v -24.82122 z m 16.99121,0 v 41.40729 h 10.12859 v -30.28652 l 0.008,0.0165 v -11.13731 z m 13.5599,0 v 19.14922 l 6.11022,14.30403 h 6.76341 l 9.54154,-22.33248 v 30.28652 h 10.0955 v -41.40729 h -13.55989 l -9.48366,22.15885 -9.43405,-22.15885 z"
         style="font-style:normal;font-weight:bold;font-size:214.69970703px;line-height:125%;font-family:Sans;-inkscape-font-specification:'Sans Bold';letter-spacing:-15.66998291px;word-spacing:0px;fill:#080000;fill-opacity:1;stroke:none;stroke-width:0.26458332"
         inkscape:connector-curvature="0" />
      <path
         id="path3767"
         d="m 80.484717,110.54198 -20.612695,44.6319 h 7.763867 l 3.249414,-7.03626 h -0.01654 l 9.66556,-20.93516 9.839192,20.93516 H 74.655616 l -3.249414,7.03626 h 30.038478 z"
         style="color:#000000;font-style:normal;font-variant:normal;font-weight:normal;font-stretch:normal;font-size:medium;line-height:normal;font-family:Sans;-inkscape-font-specification:Sans;text-indent:0;text-align:start;text-decoration:none;text-decoration-line:none;letter-spacing:normal;word-spacing:normal;text-transform:none;writing-mode:lr-tb;direction:ltr;baseline-shift:baseline;text-anchor:start;display:inline;overflow:visible;visibility:visible;fill:#080000;fill-opacity:1;stroke:none;stroke-width:7.0347414;marker:none;enable-background:accumulate"
         inkscape:connector-curvature="0" />
      <rect
         y="113.86552"
         x="60.120407"
         height="8.0180864"
         width="41.17572"
         id="rect3996"
         style="fill:#080000;fill-opacity:1;stroke:none;stroke-width:0.26458332" />
      <rect
         transform="rotate(90)"
         y="-84.717308"
         x="100.5587"
         height="8.0180864"
         width="26.056673"
         id="rect3996-7"
         style="fill:#080000;fill-opacity:1;stroke:none;stroke-width:0.26458332" />
      <rect
         transform="rotate(90)"
         y="-84.717308"
         x="149.3311"
         height="8.0180864"
         width="19.05068"
         id="rect3996-6"
         style="fill:#080000;fill-opacity:1;stroke:none;stroke-width:0.26458332" />
    </g>
    <text
       xml:space="preserve"
       style="font-style:normal;font-variant:normal;font-weight:normal;font-stretch:normal;font-size:61.76361084px;line-height:24.12641144px;font-family:'Fira Sans Condensed';-inkscape-font-specification:'Fira Sans Condensed, ';letter-spacing:0px;word-spacing:0px;fill:#000000;fill-opacity:1;stroke:none;stroke-width:0.96505642px;stroke-linecap:butt;stroke-linejoin:miter;stroke-opacity:1"
       x="-11.951162"
       y="224.42908"
       id="text7561"
       transform="rotate(-15.324415)"
       inkscape:export-xdpi="90"
       inkscape:export-ydpi="90"><tspan
         sodipodi:role="line"
         id="tspan7559"
         x="-11.951162"
         y="224.42908"
         style="font-style:normal;font-variant:normal;font-weight:normal;font-stretch:normal;font-family:'Bad Script';-inkscape-font-specification:'Bad Script';stroke-width:0.96505642px">Sweet</tspan></text>
    <g
       transform="translate(4.6322467,21.130098)"
       id="g8273"
       inkscape:export-xdpi="90"
       inkscape:export-ydpi="90">
      <text
         id="text8123-4"
         y="249.90164"
         x="71.478363"
         style="font-style:normal;font-variant:normal;font-weight:normal;font-stretch:normal;font-size:77.6111145px;line-height:6.61458349px;font-family:'Fira Sans Condensed';-inkscape-font-specification:'Fira Sans Condensed, ';letter-spacing:0px;word-spacing:0px;fill:#000000;fill-opacity:1;stroke:none;stroke-width:0.26458332px;stroke-linecap:butt;stroke-linejoin:miter;stroke-opacity:1"
         xml:space="preserve"><tspan
           style="font-style:normal;font-variant:normal;font-weight:bold;font-stretch:normal;font-family:Raleway;-inkscape-font-specification:'Raleway Bold';stroke-width:0.26458332px"
           y="249.90164"
           x="71.478363"
           id="tspan8121-8"
           sodipodi:role="line">HM</tspan></text>
      <circle
         r="26.836309"
         cy="221.02678"
         cx="42.144348"
         id="path8180"
         style="color:#000000;clip-rule:nonzero;display:inline;overflow:visible;visibility:visible;opacity:1;isolation:auto;mix-blend-mode:normal;color-interpolation:sRGB;color-interpolation-filters:linearRGB;solid-color:#000000;solid-opacity:1;vector-effect:none;fill:none;fill-opacity:1;fill-rule:nonzero;stroke:#000000;stroke-width:2;stroke-linecap:butt;stroke-linejoin:miter;stroke-miterlimit:4;stroke-dasharray:none;stroke-dashoffset:0;stroke-opacity:1;color-rendering:auto;image-rendering:auto;shape-rendering:auto;text-rendering:auto;enable-background:accumulate" />
      <rect
         y="207.06009"
         x="32.795273"
         height="27.93338"
         width="4.0331616"
         id="rect8184"
         style="color:#000000;clip-rule:nonzero;display:inline;overflow:visible;visibility:visible;opacity:1;isolation:auto;mix-blend-mode:normal;color-interpolation:sRGB;color-interpolation-filters:linearRGB;solid-color:#000000;solid-opacity:1;vector-effect:none;fill:#080000;fill-opacity:1;fill-rule:nonzero;stroke:none;stroke-width:2.53492236;stroke-linecap:butt;stroke-linejoin:miter;stroke-miterlimit:4;stroke-dasharray:none;stroke-dashoffset:0;stroke-opacity:1;color-rendering:auto;image-rendering:auto;shape-rendering:auto;text-rendering:auto;enable-background:accumulate" />
      <path
         inkscape:connector-curvature="0"
         id="path8186"
         d="M 34.811853,221.02678 H 4.5435818"
         style="fill:none;fill-rule:evenodd;stroke:#000000;stroke-width:2;stroke-linecap:butt;stroke-linejoin:miter;stroke-miterlimit:4;stroke-dasharray:none;stroke-opacity:1" />
      <path
         inkscape:connector-curvature="0"
         id="path8194"
         d="M 33.883201,218.51167 54.742758,197.65211"
         style="fill:none;fill-rule:evenodd;stroke:#000000;stroke-width:2;stroke-linecap:butt;stroke-linejoin:miter;stroke-miterlimit:4;stroke-dasharray:none;stroke-opacity:1"
         sodipodi:nodetypes="cc" />
      <path
         sodipodi:nodetypes="cc"
         inkscape:connector-curvature="0"
         id="path8196"
         d="M 35.577007,224.14507 53.97844,242.54651"
         style="fill:none;fill-rule:evenodd;stroke:#000000;stroke-width:2;stroke-linecap:butt;stroke-linejoin:miter;stroke-miterlimit:4;stroke-dasharray:none;stroke-opacity:1" />
      <path
         inkscape:connector-curvature="0"
         id="path8244"
         d="m 45.579609,241.63086 7.353403,-7.37427 2.847311,10.00065 z"
         style="fill:#080000;fill-opacity:1;fill-rule:evenodd;stroke:#000000;stroke-width:0.26458332px;stroke-linecap:butt;stroke-linejoin:miter;stroke-opacity:1" />
      <path
         inkscape:connector-curvature="0"
         id="path8250"
         d="m 54.742758,197.65211 v -3.04174"
         style="fill:none;fill-rule:evenodd;stroke:#000000;stroke-width:2;stroke-linecap:butt;stroke-linejoin:miter;stroke-miterlimit:4;stroke-dasharray:none;stroke-opacity:1"
         sodipodi:nodetypes="cc" />
      <path
         inkscape:connector-curvature="0"
         id="path8254"
         d="m 55.276435,243.44587 v 10.56406 h 2.267857"
         style="fill:none;fill-rule:evenodd;stroke:#000000;stroke-width:2;stroke-linecap:butt;stroke-linejoin:miter;stroke-miterlimit:4;stroke-dasharray:none;stroke-opacity:1"
         sodipodi:nodetypes="ccc" />
      <path
         sodipodi:nodetypes="cc"
         inkscape:connector-curvature="0"
         id="path8258"
         d="M 4.5435816,254.00993 H 190.49999"
         style="fill:none;fill-rule:evenodd;stroke:#000000;stroke-width:2;stroke-linecap:butt;stroke-linejoin:miter;stroke-miterlimit:4;stroke-dasharray:none;stroke-opacity:1" />
    </g>
  </g>
</svg>
